{
    "$schema": "http://json-schema.org/draft-04/schema",
    "type": "object",
    "name": "grammar_1",
    "properties": {
        "name": {
            "type": "object"
        }
    },
    "required":  ["name"],
    "additionalProperties": false
}
