{
	"name": "VariableInfluence_options",
	"required": [],
	"properties": {
		"level": {
			"type": "number",
			"minimum": 0.0,
			"maximum": 1.0
		},
		"absolute_value": {
			"type": "boolean"
		},
		"log_scale": {
			"type": "boolean"
		},
		"save_var_files": {
			"type": "boolean"
		}
	},
	"additionalProperties": false,
	"$schema": "http://json-schema.org/draft-04/schema",
	"type": "object"
}
